{
  "name": "",
  "css_prefix_text": "icon-",
  "css_use_suffix": false,
  "hinting": true,
  "units_per_em": 1000,
  "ascent": 850,
  "glyphs": [
    {
      "uid": "f11c9e95ae5eaa84d193e8fa1d38c6f9",
      "css": "down-open-mini",
      "code": 59392,
      "src": "entypo"
    },
    {
      "uid": "8704cd847a47b64265b8bb110c8b4d62",
      "css": "down-open",
      "code": 59393,
      "src": "entypo"
    },
    {
      "uid": "289b5f92f23acf1059c93fbf401c1ad5",
      "css": "down-open-big",
      "code": 59394,
      "src": "entypo"
    },
    {
      "uid": "9c7ff134960bb5a82404e4aeaab366d9",
      "css": "up-open",
      "code": 59395,
      "src": "entypo"
    },
    {
      "uid": "9e251fb8e9e1c71ab09683468e0479a3",
      "css": "up-open-mini",
      "code": 59396,
      "src": "entypo"
    },
    {
      "uid": "0805cca616b3c12714f35af4d0912c10",
      "css": "up-open-big",
      "code": 59397,
      "src": "entypo"
    },
    {
      "uid": "ccddff8e8670dcd130e3cb55fdfc2fd0",
      "css": "down-open-1",
      "code": 59398,
      "src": "fontawesome"
    },
    {
      "uid": "d4ebe676479ff9cb41c7797f003aa54d",
      "css": "left-open-outline",
      "code": 59399,
      "src": "typicons"
    },
    {
      "uid": "wlri7uftq4zbi82q2xuf08ayd8kpijlk",
      "css": "left-open",
      "code": 59400,
      "src": "typicons"
    },
    {
      "uid": "7e89c12b577c31bc91bfb61bb597f01f",
      "css": "down-dir",
      "code": 59401,
      "src": "entypo"
    },
    {
      "uid": "d9be617b7f2fe7843118ca2d3a1b8cca",
      "css": "down-open-2",
      "code": 61444,
      "src": "mfglabs"
    },
    {
      "uid": "616b755d0f4c7d2dc7a1dcc2e5427039",
      "css": "down-open-3",
      "code": 59402,
      "src": "elusive"
    },
    {
      "uid": "04960bf02134620e6c61bac8d6569502",
      "css": "left-open-1",
      "code": 59403,
      "src": "websymbols"
    },
    {
      "uid": "d73eceadda1f594cec0536087539afbf",
      "css": "heart",
      "code": 59404,
      "src": "fontawesome"
    },
    {
      "uid": "f3dc2d6d8fe9cf9ebff84dc260888cdf",
      "css": "heart-empty",
      "code": 59405,
      "src": "fontawesome"
    },
    {
      "uid": "d18071bbf8f0a8cec8d1f556c91c6af0",
      "css": "heart-empty-1",
      "code": 59406,
      "src": "entypo"
    },
    {
      "uid": "0eabe5f8d71cc838484ff39436426d2d",
      "css": "heart-1",
      "code": 59407,
      "src": "entypo"
    },
    {
      "uid": "3b00728aa97ad1a2581d414bd9d650bc",
      "css": "heart-2",
      "code": 59408,
      "src": "typicons"
    },
    {
      "uid": "7eed700d710c276569f95be26326fa5b",
      "css": "heart-empty-2",
      "code": 59409,
      "src": "elusive"
    },
    {
      "uid": "1bcc6c6369c3d475fa27115f806ff2ad",
      "css": "heart-empty-3",
      "code": 59410,
      "src": "websymbols"
    },
    {
      "uid": "5c8a627c2e11bfc2854045872f6bd8f4",
      "css": "plug",
      "code": 59411,
      "src": "typicons"
    },
    {
      "uid": "ccd52a22af21fbaa98a9c85fb50fca6b",
      "css": "info",
      "code": 59412,
      "src": "iconic"
    },
    {
      "uid": "f3eb666ee77d5120ac33c710aa3fd28e",
      "css": "help",
      "code": 59413,
      "src": "iconic"
    },
    {
      "uid": "d6944e1d9af302093d43b299bbecbbbe02",
      "css": "home",
      "code": 59414,
      "src": "iconic"
    },
    {
      "uid": "599d6c088f4a1c64611b989459d65f6b",
      "css": "lightbulb",
      "code": 59415,
      "src": "elusive"
    },
    {
      "uid": "f84e243b91683403debed23b950f7efb",
      "css": "bell",
      "code": 59416,
      "src": "elusive"
    },
    {
      "uid": "8ca5f77677a66dbe813213ca75ac1474",
      "css": "mic",
      "code": 59417,
      "src": "elusive"
    },
    {
      "uid": "86cc7238838f8a1d9d442ee34120c78e",
      "css": "up-hand",
      "code": 59418,
      "src": "elusive"
    },
    {
      "uid": "1526e1ee08023c1542cbf65d3a9afa93",
      "css": "star",
      "code": 59419,
      "src": "websymbols"
    },
    {
      "uid": "3d4ea8a78dc34efe891f3a0f3d961274",
      "css": "info-1",
      "code": 61737,
      "src": "fontawesome"
    },
    {
      "uid": "5bb103cd29de77e0e06a52638527b575",
      "css": "wrench",
      "code": 59420,
      "src": "fontawesome"
    },
    {
      "uid": "f27bba41a700af51a4dd23cf4edea61d",
      "css": "headphones",
      "code": 59421,
      "src": "fontawesome"
    },
    {
      "uid": "5278ef7773e948d56c4d442c8c8c98cf",
      "css": "lightbulb-1",
      "code": 61675,
      "src": "fontawesome"
    },
    {
      "uid": "9affc98d652b86628d650ee58dbf0357",
      "css": "basket-1",
      "code": 59422,
      "src": "fontawesome"
    },
    {
      "uid": "ab656e280958018a7859eba9a1eabbc7",
      "css": "award",
      "code": 59423,
      "src": "fontawesome"
    },
    {
      "uid": "4b2321afcbe0505a70b80abd5c25e09b",
      "css": "paper-plane-empty",
      "code": 61913,
      "src": "fontawesome"
    },
    {
      "uid": "a14be0c7e0689076e2bdde97f8e309f9",
      "css": "plug-1",
      "code": 61926,
      "src": "fontawesome"
    },
    {
      "uid": "6a7b9d4863bb7e6c79e9457a72d689b6",
      "css": "tools",
      "code": 59425,
      "src": "entypo"
    },
    {
      "uid": "4b20e1deee87faf4c3fab735fbd4bc1a",
      "css": "lamp",
      "code": 59424,
      "src": "entypo"
    },
    {
      "uid": "1e099a876c8a6a83f10c9bafa9886614",
      "css": "mic-1",
      "code": 59426,
      "src": "entypo"
    },
    {
      "uid": "978aa8facd816df874039e139cb0cdde",
      "css": "trophy",
      "code": 59427,
      "src": "entypo"
    },
    {
      "uid": "12d16dda691bda304e3b57d7bc0de5a9",
      "css": "lightbulb-2",
      "code": 59428,
      "src": "typicons"
    },
    {
      "uid": "4d3a91e6b0db6e03acaa74a861e2ab95",
      "css": "desktop",
      "code": 59429,
      "src": "typicons"
    },
    {
      "uid": "eea1af32a01c5e7a9ce5675bcff64a7b",
      "css": "laptop",
      "code": 59430,
      "src": "typicons"
    },
    {
      "uid": "c710cda53f5e1f8705865d453b7f323f",
      "css": "tablet",
      "code": 59431,
      "src": "typicons"
    },
    {
      "uid": "gz5flrq210wzbyafnerm4e0aublo7qwb",
      "css": "mobile",
      "code": 59432,
      "src": "typicons"
    },
    {
      "uid": "b387bb08e237859ba573fb32e2117310",
      "css": "power",
      "code": 59433,
      "src": "typicons"
    },
    {
      "uid": "c2e02247804b8372740de0b76311f1ad",
      "css": "beer",
      "code": 59434,
      "src": "typicons"
    },
    {
      "uid": "610efad3150b6959e1b3fc863f39c60c",
      "css": "gift",
      "code": 59435,
      "src": "typicons"
    },
    {
      "uid": "fc94b92194752796654c96c7b7dccebb",
      "css": "cog",
      "code": 59436,
      "src": "iconic"
    },
    {
      "uid": "f185a7454f33a8fbcdd943db8a998cfd",
      "css": "wrench-1",
      "code": 59437,
      "src": "iconic"
    },
    {
      "uid": "raxalm7kdj5at9v49bevw6r2cw7fdv9r",
      "css": "mobile-alt",
      "code": 59438,
      "src": "modernpics"
    },
    {
      "uid": "m3m8301t2xdy30x4lp7txm0vztl67tcl",
      "css": "mobile-1",
      "code": 59439,
      "src": "modernpics"
    },
    {
      "uid": "hx5rpl1lxy10jqibjq0jmu0dhruapso4",
      "css": "ipod",
      "code": 59440,
      "src": "modernpics"
    },
    {
      "uid": "r36ey62e6pi493s139u528739kjr3o8w",
      "css": "tablet-1",
      "code": 59441,
      "src": "modernpics"
    },
    {
      "uid": "dplw5xo88mzzr7b45nvjcamyyhni6drs",
      "css": "book",
      "code": 59442,
      "src": "modernpics"
    },
    {
      "uid": "cde79a37774e5817bc68fff2464aee28",
      "css": "wrench-2",
      "code": 59443,
      "src": "elusive"
    },
    {
      "uid": "1e32e1f8787cf3cb9f52f8850822dcb6",
      "css": "cogs",
      "code": 59444,
      "src": "elusive"
    },
    {
      "uid": "0ddd3e8201ccc7d41f7b7c9d27eca6c1",
      "css": "link",
      "code": 59445,
      "src": "fontawesome"
    },
    {
      "uid": "1dcd2b2148b7f086a4eb47f6a746bdee",
      "css": "unlink",
      "code": 61735,
      "src": "fontawesome"
    },
    {
      "uid": "0d6ab6194c0eddda2b8c9cedf2ab248e",
      "css": "attach",
      "code": 59446,
      "src": "fontawesome"
    },
    {
      "uid": "bf882b30900da12fca090d9796bc3030",
      "css": "mail",
      "code": 59447,
      "src": "fontawesome"
    },
    {
      "uid": "ccc2329632396dc096bb638d4b46fb98",
      "css": "mail-alt",
      "code": 61664,
      "src": "fontawesome"
    },
    {
      "uid": "0d08dbb1dd648a43bdea81b7e6c9e036",
      "css": "location",
      "code": 59448,
      "src": "fontawesome"
    },
    {
      "uid": "wg849ixsobykxshs6efpc6fk4m0fq8bh",
      "css": "mail-1",
      "code": 59449,
      "src": "typicons"
    },
    {
      "uid": "e335adbc2d898c7d85d40c507796e7b4",
      "css": "mail-2",
      "code": 59450,
      "src": "entypo"
    },
    {
      "uid": "937f4db8b6ff3348a1d9fcd5e12fd2fe",
      "css": "mail-3",
      "code": 59451,
      "src": "iconic"
    },
    {
      "uid": "13289e807e02b1d46f2fe10d81d6fba6",
      "css": "location-outline",
      "code": 59452,
      "src": "typicons"
    },
    {
      "uid": "gjt8ba5q0n3nn8ptw6324sflr8qoaeam",
      "css": "location-1",
      "code": 59453,
      "src": "typicons"
    },
    {
      "uid": "08a23ea96a596b1b5f12f6abbbc8f5f9",
      "css": "location-2",
      "code": 59454,
      "src": "iconic"
    },
    {
      "uid": "d061c177f823e3ab1eb38085f84efaf2",
      "css": "location-inv",
      "code": 59455,
      "src": "iconic"
    },
    {
      "uid": "cfcd1785b56a93cbac7662294861173e",
      "css": "location-alt",
      "code": 59456,
      "src": "iconic"
    },
    {
      "uid": "ae3so8q0b0n2h8esv9flua2nmwswa8fd",
      "css": "mail-4",
      "code": 59457,
      "src": "modernpics"
    },
    {
      "uid": "a17986e457f3d85f26c9c240dfd6a4ba",
      "css": "mail-5",
      "code": 59458,
      "src": "mfglabs"
    },
    {
      "uid": "too2rspp5e6z6m0y6lconmv23uw3qlqo",
      "css": "location-3",
      "code": 59459,
      "src": "modernpics"
    },
    {
      "uid": "291e2e127efe7a6bc580af6d3ead3771",
      "css": "location-4",
      "code": 61489,
      "src": "mfglabs"
    },
    {
      "uid": "a58032f4aafd0eec54803075f5b320d4",
      "css": "email",
      "code": 59460,
      "src": "zocial"
    },
    {
      "uid": "b6ef4443ecc502136135437837d9724b",
      "css": "mail-6",
      "code": 59461,
      "src": "elusive"
    },
    {
      "uid": "22cfc7af2c4f158b37317c65c92b48c2",
      "css": "location-5",
      "code": 59462,
      "src": "elusive"
    },
    {
      "uid": "69f76f7134f721d16c28ab23f84d4882",
      "css": "location-6",
      "code": 59463,
      "src": "websymbols"
    },
    {
      "uid": "9f7e588c66cfd6891f6f507cf6f6596b",
      "css": "phone",
      "code": 59464,
      "src": "fontawesome"
    },
    {
      "uid": "c91098f07ff0df45b3f8666b72b75801",
      "css": "phone-1",
      "code": 59465,
      "src": "elusive"
    },
    {
      "uid": "8e04c98c8f5ca0a035776e3001ad2638",
      "css": "facebook",
      "code": 61594,
      "src": "fontawesome"
    },
    {
      "uid": "bc50457410acf467b8b5721240768742",
      "css": "facebook-1",
      "code": 62220,
      "src": "entypo"
    },
    {
      "uid": "77b3693facc3d803417105997b4ffe96",
      "css": "facebook-2",
      "code": 59466,
      "src": "typicons"
    },
    {
      "uid": "w42gjpwdzqeszptpy1xqp8r77o6gcasj",
      "css": "facebook-3",
      "code": 62208,
      "src": "modernpics"
    },
    {
      "uid": "53d4dc777eeba379412efba3ee1cac9e",
      "css": "facebook-4",
      "code": 61522,
      "src": "mfglabs"
    },
    {
      "uid": "6f7586c6f99798c3c1de6123d1f6cfa9",
      "css": "facebook-5",
      "code": 59467,
      "src": "zocial"
    },
    {
      "uid": "240979dd9fcf2e46250e66792edb8092",
      "css": "facebook-6",
      "code": 59468,
      "src": "brandico"
    },
    {
      "uid": "627abcdb627cb1789e009c08e2678ef9",
      "css": "twitter",
      "code": 61593,
      "src": "fontawesome"
    },
    {
      "uid": "d090355c31f497b61d676416c1fd39fb",
      "css": "twitter-1",
      "code": 62217,
      "src": "entypo"
    },
    {
      "uid": "4568bba1dba45522fc539c733c9b35e5",
      "css": "twitter-2",
      "code": 59469,
      "src": "typicons"
    },
    {
      "uid": "e9107949dd6c9e8ab2b29ae07156e38c",
      "css": "linkedin",
      "code": 61665,
      "src": "fontawesome"
    },
    {
      "uid": "f3d95e13eb43f3f6b8efe1eb424a1e3b",
      "css": "vkontakte",
      "code": 61833,
      "src": "fontawesome"
    },
    {
      "uid": "4c1ef492f1d2c39a2250ae457cee2a6e",
      "css": "instagram",
      "code": 61805,
      "src": "fontawesome"
    },
    {
      "uid": "7132e1233bc16cd1b6efe7e29d3613a5",
      "css": "linkedin-1",
      "code": 62232,
      "src": "entypo"
    },
    {
      "uid": "538531af0e023b15882c505ee2297cbe",
      "css": "vimeo",
      "code": 62214,
      "src": "entypo"
    },
    {
      "uid": "25a30265650b260ef03df4cbbff80272",
      "css": "linkedin-2",
      "code": 59470,
      "src": "typicons"
    }
  ]
}